<?xml version="1.0" encoding="utf-8"?>
<!-- Generator: Adobe Illustrator 19.0.0, SVG Export Plug-In . SVG Version: 6.00 Build 0)  -->
<svg version="1.1" id="Layer_1" xmlns="http://www.w3.org/2000/svg" xmlns:xlink="http://www.w3.org/1999/xlink" x="0px" y="0px"
	 viewBox="-442.4 -246.7 645.8 606.1" style="enable-background:new -442.4 -246.7 645.8 606.1;" xml:space="preserve">
<style type="text/css">
	.st0{fill-rule:evenodd;clip-rule:evenodd;fill:#EF4E23;}
</style>
<g id="XMLID_1566_">
	<path id="XMLID_1747_" class="st0" d="M-374.8,232.7h11c0,0,0.6,16.2-11.9,16.2c-2.6,0-6.4,1.2-9.4,3.6c-6.7,5.4-8.1,15.2-3.1,22.2
		c5.4,7.6,16,9.2,23.4,3.6c4.2-3.2,6.3-7.8,6.5-13l0,0v-12.2l0-44.2h16.2v54.2c0,3.9-0.5,7.7-1.6,11.5c-0.7,2.5-1.7,5.1-3.1,7.6
		c-2.1,3.4-4.8,6.5-8.1,9c-14.3,10.9-34.8,8.2-45.7-6.2c-10.9-14.3-8.2-34.8,6.1-45.7c0,0,3.2-2.5,7.7-4.4c3.2-1.3,6.7-2.1,10.3-2.3
		L-374.8,232.7z"/>
	<path id="XMLID_1746_" class="st0" d="M-109.8,298.8h11c0,0,0.6-16.2-11.9-16.2c-2.6,0-6.4-1.2-9.4-3.6c-6.7-5.4-8.1-15.2-3.1-22.2
		c5.4-7.6,16-9.2,23.4-3.6c4.2,3.2,6.3,7.8,6.5,13l0,0v12.2l0,19.9h16.2v-29.9c0-3.9-0.5-7.7-1.6-11.5c-0.7-2.5-1.7-5.1-3.1-7.6
		c-2.1-3.4-4.8-6.5-8.1-9c-14.3-10.9-34.8-8.2-45.7,6.1v0c-10.9,14.3-8.2,34.8,6.1,45.7c0,0,3.2,2.5,7.7,4.4
		c3.2,1.3,6.7,2.1,10.3,2.3L-109.8,298.8z"/>
	<path id="XMLID_1578_" class="st0" d="M-27.4,298.8h11c0,0,0.6-16.2-11.9-16.2c-2.6,0-6.4-1.2-9.4-3.6c-6.7-5.4-8.1-15.2-3.1-22.2
		c5.4-7.6,16-9.2,23.4-3.6c4.2,3.2,6.3,7.8,6.5,13l0,0l0,12.2l0,19.9H5.2v-29.9c0-3.9-0.5-7.7-1.6-11.5c-0.7-2.5-1.7-5.1-3.1-7.6
		c-2.1-3.4-4.8-6.5-8.1-9c-14.3-10.9-34.8-8.2-45.7,6.1v0c-10.9,14.3-8.2,34.8,6.1,45.7c0,0,3.2,2.5,7.7,4.4
		c3.2,1.3,6.7,2.1,10.3,2.3L-27.4,298.8z"/>
	<path id="XMLID_1577_" class="st0" d="M-283.1,233.6c-6.9,0-13.6,1-17.7,6.2V209H-317v89.2h16.2V267c0-12.2,5.9-17.7,15.2-17.7
		c8.5,0,14.2,4.5,14.2,16.3v32.6h16.2v-33.7C-255.3,246.1-264.8,233.6-283.1,233.6z"/>
	<path id="XMLID_1576_" class="st0" d="M148.2,234.7v32.6c0,11-4.9,15.7-12.4,16.2c-7.6-0.6-12.4-5.2-12.4-16.2v-32.6h-16.2v33.7
		c0,18.5,9.4,31,27.8,31c0.3,0,0.6,0,0.8,0c0.3,0,0.6,0,0.8,0c18.4,0,27.8-12.5,27.8-31v-33.7H148.2z"/>
	<rect id="XMLID_1575_" x="-233.7" y="234.5" class="st0" width="16.2" height="63.7"/>
	<path id="XMLID_1574_" class="st0" d="M-162.9,233.6c-4.9,0-9.8,1.1-14.2,3.3c-0.8,0.4-1.5,0.8-2.2,1.2v0l0,0
		c-3.7,2.1-6.9,4.9-9.5,8.4c-1.2,1.6-2.3,3.3-3.2,5c-2.3,4.2-3.5,8.9-3.5,13.7v33.2h16.2v-31.9c-0.1-3.4,0.9-6.8,3-9.8
		c3.1-4.3,8.1-6.9,13.4-6.9l7.4,0v-16.2H-162.9z"/>
	<path id="XMLID_1573_" class="st0" d="M-226,210.8c4.7,0,8.5,3.8,8.5,8.5c0,4.7-3.8,8.5-8.5,8.5c-4.7,0-8.5-3.8-8.5-8.5
		C-234.5,214.6-230.7,210.8-226,210.8z"/>
	<path id="XMLID_1572_" class="st0" d="M88.4,284v-15.7c0-3.9-0.5-7.7-1.6-11.5c-0.7-2.5-1.7-5.1-3.1-7.6c-2.1-3.4-4.8-6.5-8.1-9
		c-14.3-10.9-34.8-8.2-45.7,6.1v0c-10.9,14.3-8.2,34.8,6.2,45.7c0,0,3.2,2.5,7.7,4.4c3.2,1.3,6.7,2.1,10.3,2.3l1.7,0h11
		c0,0,0.6-16.2-11.9-16.2c-2.6,0-6.4-1.2-9.4-3.6c-6.7-5.4-8.1-15.2-3.1-22.2c5.4-7.6,16-9.2,23.4-3.6c4.2,3.2,6.3,7.8,6.5,13l0,0
		l0,2.3l0,0l0,0v14.7l0,0.9h0v12.1c-0.1,9.1-6.3,13.8-15.5,13.8c-7.1,0.1-12.8-1.9-18.9-4.9l-9.1,9.8c6.9,5.7,16.4,9.9,28,9.9
		c19.8,0,32.4-13.1,31.6-32.3L88.4,284L88.4,284z"/>
	<path id="XMLID_1571_" class="st0" d="M-140.2-189.2c-1.7-5.9-5.6-10.8-11-13.8c-5.4-3-11.6-3.7-17.6-2c-5.9,1.7-10.8,5.6-13.8,11
		c-3,5.4-3.7,11.6-2,17.6l25.9,93.5c2.8,9.8,12,16.7,22.2,16.7c2.2,0,4.3-0.3,6.4-0.9c5.9-1.7,10.8-5.6,13.8-11
		c3-5.4,3.7-11.6,2-17.6L-140.2-189.2z"/>
	<path id="XMLID_1570_" class="st0" d="M-217.1-30.2c6,0.3,11.6-2.3,16-6.5c4.4-4.3,7-10,7.1-16.2c0.1-6.2-2.2-12-6.5-16.5
		l-56.9-58.5c-8.8-9.2-23.5-9.5-32.7-0.6c-4.4,4.3-7,10-7.1,16.2c-0.1,6.2,2.2,12,6.5,16.5l56.9,58.5
		C-233.7-37.3-227.5-30.7-217.1-30.2z"/>
	<path id="XMLID_1569_" class="st0" d="M-254.4-1.7l-60.8-14.1c-6-1.4-12.2-0.4-17.5,2.8c-5.3,3.2-8.9,8.3-10.4,14.3
		c-1.4,6-0.4,12.2,2.8,17.5c3.2,5.3,8.3,8.9,14.3,10.4l60.8,14.1c1.8,0.4,3.6,0.6,5.4,0.6c10.7,0,20-7.3,22.5-17.7
		c1.4-6,0.4-12.2-2.8-17.5C-243.3,3.5-248.4-0.2-254.4-1.7z"/>
	<path id="XMLID_1568_" class="st0" d="M93.6-34.6L93.6-34.6c-4.4-4.3-10.3-6.6-16.5-6.5C71-40.9,65.2-38.4,61-34L9.1,19.1
		c-4.3,4.4-6.6,10.3-6.5,16.5c0.1,6.2,2.6,11.9,7.1,16.2c4.3,4.2,10,6.5,16,6.5c6.3,0,12.3-2.5,16.6-7.1L94.2-1.9
		c4.3-4.4,6.6-10.3,6.5-16.5C100.6-24.6,98.1-30.3,93.6-34.6z"/>
	<path id="XMLID_1567_" class="st0" d="M-118.7-42.5h33.2c0,0,2,44.5-34,44.5C-131,2-142.6,6-152.3,13.9
		c-21.9,17.7-26.4,49.7-10.2,72.7c17.6,25,52.4,30.2,76.5,11.8C-72.2,87.9-65.2,73-64.8,56c0,0,0-0.1,0-0.1v-247.4
		c0-12.2,9.6-22.3,21.5-22.7h1.5c0.2,0,0.4,0,0.5,0c11.6,0.7,20.9,10.4,20.9,22.2V49.3c0,11.7-1.5,23.3-4.7,34.5
		c-2.2,7.5-5.2,15.5-9.5,22.7c-6.2,10.2-14.3,19.5-24.4,27.1c-43.1,32.9-104.7,24.6-137.6-18.5c-32.9-43.1-24.6-104.7,18.5-137.6
		c0,0,9.6-7.5,23.2-13.2c9.7-4,20.1-6.3,31.1-6.9L-118.7-42.5z"/>
</g>
</svg>
